…
    ## 'data.frame':    14932 obs. of  1 variable:
    ##  $ V1: chr  "RT,SERIALNO,SPORDER,PUMA,ST,ADJUST,PWGTP,AGEP,CIT,COW,DDRS,DEYE,DOUT,DPHY,DREM,DWRK,ENG,FER,GCL,GCM,GCR,INTP,JW"| __truncated__ "P,186,1,00700,16,1015675,0089,43,1,7,2,2,2,2,2,2,,,2,,,000000,015,01,01,2,1,1,3,2,0,0,1,0,0,0,0,0,0,0,0,3,5,3,3"| __truncated__ "P,186,2,00700,16,1015675,0092,42,1,4,2,2,2,2,2,2,,2,2,,,000000,,,,2,1,1,5,,,,,,,,,,,,,2,5,2,2,3,000000,00000,01"| __truncated__ "P,186,3,00700,16,1015675,0107,16,1,1,2,2,2,2,2,2,,,,,,000000,005,01,01,2,5,1,,,,,,,,,,,,,,3,5,3,3,3,000000,0000"| __truncated__ ...

Para utilizarla correctamente debemos utilizar algunos parámetros extra.
Vamos a indicar que el separador sea una “coma” ya que es un csv, y le
vamos a decir que si que tiene cabecera, es decir que la primera línea
son los nombres de las variables.

``` r
housing_2006 <- read.table("./data/idaho_2006.csv", sep = ",", header = TRUE)
library(tibble)
as_tibble(housing_2006)
```

    ## # A tibble: 14,931 × 239
    ##    RT    SERIALNO SPORDER  PUMA    ST ADJUST PWGTP  AGEP   CIT   COW  DDRS  DEYE
    ##    <chr>    <int>   <int> <int> <int>  <int> <int> <int> <int> <int> <int> <int>
    ##  1 P          186       1   700    16 1.02e6    89    43     1     7     2     2
    ##  2 P          186       2   700    16 1.02e6    92    42     1     4     2     2
    ##  3 P          186       3   700    16 1.02e6   107    16     1     1     2     2
    ##  4 P          186       4   700    16 1.02e6    91    14     1    NA     2     2
    ##  5 P          306       1   700    16 1.02e6   309    29     1     5     2     2
    ##  6 P          395       1   100    16 1.02e6   108    40     1     8     2     2
    ##  7 P          395       2   100    16 1.02e6    90    15     1    NA     2     2
    ##  8 P          506       1   700    16 1.02e6   239    28     1     1     2     2
    ##  9 P          506       2   700    16 1.02e6   213    30     1     1     2     2
    ## 10 P          506       3   700    16 1.02e6   219     4     1    NA    NA    NA
    ## # … with 14,921 more rows, and 227 more variables: DOUT <int>, DPHY <int>,
    ## #   DREM <int>, DWRK <int>, ENG <int>, FER <int>, GCL <int>, GCM <int>,
    ## #   GCR <int>, INTP <int>, JWMNP <int>, JWRIP <int>, JWTR <int>, LANX <int>,
    ## #   MAR <int>, MIG <int>, MIL <int>, MILY <int>, MLPA <int>, MLPB <int>,
    ## #   MLPC <int>, MLPD <int>, MLPE <int>, MLPF <int>, MLPG <int>, MLPH <int>,
    ## #   MLPI <int>, MLPJ <int>, MLPK <int>, NWAB <int>, NWAV <int>, NWLA <int>,
    ## #   NWLK <int>, NWRE <int>, OIP <int>, PAP <int>, REL <int>, RETP <int>, …

Con read.csv() ya no tenemos que incorporar estos parámetros ya que por
defecto el separador es la “,” y las cabeceras están en TRUE.

``` r
housing_2006_2 <- read.csv("./data/idaho_2006.csv")
as_tibble(housing_2006_2)
```

    ## # A tibble: 14,931 × 239
    ##    RT    SERIALNO SPORDER  PUMA    ST ADJUST PWGTP  AGEP   CIT   COW  DDRS  DEYE
    ##    <chr>    <int>   <int> <int> <int>  <int> <int> <int> <int> <int> <int> <int>
    ##  1 P          186       1   700    16 1.02e6    89    43     1     7     2     2
    ##  2 P          186       2   700    16 1.02e6    92    42     1     4     2     2
    ##  3 P          186       3   700    16 1.02e6   107    16     1     1     2     2
    ##  4 P          186       4   700    16 1.02e6    91    14     1    NA     2     2
    ##  5 P          306       1   700    16 1.02e6   309    29     1     5     2     2
    ##  6 P          395       1   100    16 1.02e6   108    40     1     8     2     2
    ##  7 P          395       2   100    16 1.02e6    90    15     1    NA     2     2
    ##  8 P          506       1   700    16 1.02e6   239    28     1     1     2     2
    ##  9 P          506       2   700    16 1.02e6   213    30     1     1     2     2
    ## 10 P          506       3   700    16 1.02e6   219     4     1    NA    NA    NA
    ## # … with 14,921 more rows, and 227 more variables: DOUT <int>, DPHY <int>,
    ## #   DREM <int>, DWRK <int>, ENG <int>, FER <int>, GCL <int>, GCM <int>,
    ## #   GCR <int>, INTP <int>, JWMNP <int>, JWRIP <int>, JWTR <int>, LANX <int>,
    ## #   MAR <int>, MIG <int>, MIL <int>, MILY <int>, MLPA <int>, MLPB <int>,
    ## #   MLPC <int>, MLPD <int>, MLPE <int>, MLPF <int>, MLPG <int>, MLPH <int>,
    ## #   MLPI <int>, MLPJ <int>, MLPK <int>, NWAB <int>, NWAV <int>, NWLA <int>,
    ## #   NWLK <int>, NWRE <int>, OIP <int>, PAP <int>, REL <int>, RETP <int>, …
…
