…
    ## 
    ## FALSE  TRUE 
    ##  1268    59

Ahora bien, si lo que queremos son los valores y no la suma de cuantos
son, podemos hacer un subsetting utilizando %in%

``` r
restData[restData$zipcode %in% c("21212", "21213"), ]
```

    ## # A tibble: 59 × 32
    ##           X      Y   fid gis_id srcid_t srcid_i edit_date ftype subtype loc_type
    ##       <dbl>  <dbl> <int> <chr>  <lgl>     <int> <chr>     <int> <lgl>   <chr>   
    ##  1  -8.53e6 4.76e6    29 27_96  NA            0 2008/06/…    27 NA      ST      
    ##  2  -8.53e6 4.77e6    39 27_106 NA            0 2008/06/…    27 NA      ST      
    ##  3  -8.53e6 4.77e6    92 27_63  NA            0 2008/06/…    27 NA      ST      
    ##  4  -8.53e6 4.77e6   111 27_82  NA            0 2008/06/…    27 NA      ST      
    ##  5  -8.53e6 4.77e6   187 27_187 NA            0 2008/06/…    27 NA      ST      
    ##  6  -8.53e6 4.77e6   220 27_220 NA            0 2008/06/…    27 NA      ST      
    ##  7  -8.53e6 4.77e6   266 27_266 NA            0 2008/06/…    27 NA      ST      
    ##  8  -8.52e6 4.77e6   276 27_276 NA            0 2008/06/…    27 NA      ST      
    ##  9  -8.52e6 4.77e6   289 27_289 NA            0 2008/06/…    27 NA      ST      
    ## 10  -8.53e6 4.77e6   291 27_291 NA            0 2008/06/…    27 NA      ST      
    ## # … with 49 more rows, and 22 more variables: loc_meth <chr>, street_tag <dbl>,
    ## #   prcl_pin <chr>, address <chr>, city <chr>, state <chr>, zipcode <fct>,
    ## #   x_coord <dbl>, y_coord <dbl>, name <fct>, alias1 <lgl>, nghbrhd <fct>,
    ## #   cncldst <int>, stfid_blk <dbl>, plcdst_no <int>, plcdst <chr>, usng <chr>,
    ## #   cntct_nme <lgl>, cntct_phn <lgl>, cntct_dpt <lgl>, globalid <chr>,
    ## #   url <lgl>
…
