…
Genera sumarios de una variable agrupados por nivel. Esto nos permite
dividir el dataset.

Vamos a añadir una nueva categoría con diferentes niveles para generar
una estructura de datos.

``` r
chicago <- mutate(chicago, 
                  tempcat = factor(1 * (tmpd > 80), 
                                   labels = c("cold", "hot")))
hotcold <- group_by(chicago, tempcat)
hotcold
```

    ## # A tibble: 6,940 × 10
    ## # Groups:   tempcat [3]
    ##    city   tmpd dewpoint date        pm25 pm10tmean2 o3tmean2 no2tmean2
    ##    <chr> <dbl>    <dbl> <date>     <dbl>      <dbl>    <dbl>     <dbl>
    ##  1 chic     35     30.1 2005-12-31 15          23.5     2.53      13.2
    ##  2 chic     36     31   2005-12-30 15.1        19.2     3.03      22.8
    ##  3 chic     35     29.4 2005-12-29  7.45       23.5     6.79      20.0
    ##  4 chic     37     34.5 2005-12-28 17.8        27.5     3.26      19.3
    ##  5 chic     40     33.6 2005-12-27 23.6        27       4.47      23.5
    ##  6 chic     35     29.6 2005-12-26  8.4         8.5    14.0       16.8
    ##  7 chic     35     32.1 2005-12-25  6.7         8      14.4       13.8
    ##  8 chic     37     35.2 2005-12-24 30.8        25.2     1.77      32.0
    ##  9 chic     41     32.6 2005-12-23 32.9        34.5     6.91      29.1
    ## 10 chic     22     23.3 2005-12-22 36.6        42.5     5.39      33.7
    ## # … with 6,930 more rows, and 2 more variables: pm25detrend <dbl>,
    ## #   tempcat <fct>
…
