…
    ## ── Conflicts ────────────────────────────────────────── tidyverse_conflicts() ──
    ## x dplyr::filter() masks stats::filter()
    ## x dplyr::lag()    masks stats::lag()

``` r
affyData <- dbReadTable(hg19, "affyU133Plus2")
affyData <- tbl_df(affyData)
affyData
```

    ## # A tibble: 58,463 × 22
    ##      bin matches misMatches repMatches nCount qNumInsert qBaseInsert tNumInsert
    ##    <dbl>   <dbl>      <dbl>      <dbl>  <dbl>      <dbl>       <dbl>      <dbl>
    ##  1   585     530          4          0     23          3          41          3
    ##  2   585    3355         17          0    109          9          67          9
    ##  3   585    4156         14          0     83         16          18          2
    ##  4   585    4667          9          0     68         21          42          3
    ##  5   585    5180         14          0    167         10          38          1
    ##  6   585     468          5          0     14          0           0          0
    ##  7   585     723          3          0      6          1           1          1
    ##  8   585    1180          0          0      8          1           1          2
    ##  9    73    2585         21          0     56          2           2          1
    ## 10   585    1364         23          0     75         22          41          3
    ## # … with 58,453 more rows, and 14 more variables: tBaseInsert <dbl>,
    ## #   strand <chr>, qName <chr>, qSize <dbl>, qStart <dbl>, qEnd <dbl>,
    ## #   tName <chr>, tSize <dbl>, tStart <dbl>, tEnd <dbl>, blockCount <dbl>,
    ## #   blockSizes <chr>, qStarts <chr>, tStarts <chr>
…
